Stat 301-2 Final Project
…
eda_data %>% 
  drop_na() %>% 
  filter(age > 10)

## # A tibble: 46 x 77
## # Groups:   market_id [46]
##    position_two bf_odds bf_odds_two_min vic_tote vic_tote_two_mi nsw_tote
##           <int>   <dbl>            <dbl>    <dbl>            <dbl>    <dbl>
##  1           14    18               12       23               19.1     19.8
##  2           13    65               70       27.6             26.1     28.3
##  3            2    22               21       22.1             22.7     25.3
##  4            1    14               13       18.3             11       14.2
##  5            1     6.8              6.8      6.4              5.9      6.1
##  6           10   140               70       43.7             24.9     77.4
##  7            4    40               44       30.7             29.5     27.2
##  8            4     7.6              8.4      6.1              5.3      5.7
##  9            9     8.2              7.6      9.1              9.8      8.9
## 10            4    10.5              9.4      8.2              7.2      8  
## #  with 36 more rows, and 71 more variables: nsw_tote_two_mins_out <dbl>,
## #   nsw_odds <dbl>, market_id <int>, race_number <int>, number <int>,
## #   barrier <int>, tech_form_rating <int>, total_rating_points <int>,
## #   handicap_weight <dbl>, tip_pundit_win <dbl>, tip_recent_win <dbl>,
## #   prize_money <dbl>, age <int>, days_since_last_run <int>,
## #   overall_starts <int>, overall_wins <int>, overall_places <int>,
## #   track_starts <int>, track_wins <int>, track_places <int>,
## #   firm_starts <int>, firm_wins <int>, firm_places <int>,
## #   good_starts <int>, good_wins <int>, good_places <int>,
…
